\relax 
\providecommand\hyper@newdestlabel[2]{}
\abx@aux@refcontext{nty/global//global/global}
\providecommand\HyperFirstAtBeginDocument{\AtBeginDocument}
\HyperFirstAtBeginDocument{\ifx\hyper@anchor\@undefined
\global\let\oldcontentsline\contentsline
\gdef\contentsline#1#2#3#4{\oldcontentsline{#1}{#2}{#3}}
\global\let\oldnewlabel\newlabel
\gdef\newlabel#1#2{\newlabelxx{#1}#2}
\gdef\newlabelxx#1#2#3#4#5#6{\oldnewlabel{#1}{{#2}{#3}}}
\AtEndDocument{\ifx\hyper@anchor\@undefined
\let\contentsline\oldcontentsline
\let\newlabel\oldnewlabel
\fi}
\fi}
\global\let\hyper@last\relax 
\gdef\HyperFirstAtBeginDocument#1{#1}
\providecommand\HyField@AuxAddToFields[1]{}
\providecommand\HyField@AuxAddToCoFields[2]{}
\abx@aux@cite{0}{tiemann2018enhanced}
\abx@aux@segm{0}{0}{tiemann2018enhanced}
\abx@aux@cite{0}{cheng2005visual}
\abx@aux@segm{0}{0}{cheng2005visual}
\abx@aux@cite{0}{lee2013embedded}
\abx@aux@segm{0}{0}{lee2013embedded}
\abx@aux@cite{0}{filliat2003map}
\abx@aux@segm{0}{0}{filliat2003map}
\abx@aux@cite{0}{mur2015orb}
\abx@aux@segm{0}{0}{mur2015orb}
\abx@aux@cite{0}{mur2017orb}
\abx@aux@segm{0}{0}{mur2017orb}
\abx@aux@cite{0}{campos2021orb}
\abx@aux@segm{0}{0}{campos2021orb}
\@writefile{toc}{\contentsline {section}{\numberline {1}Introduction}{1}{section.1}\protected@file@percent }
\abx@aux@cite{0}{strasdat2012visual}
\abx@aux@segm{0}{0}{strasdat2012visual}
\abx@aux@cite{0}{castellanos1999spmap}
\abx@aux@segm{0}{0}{castellanos1999spmap}
\abx@aux@cite{0}{strasdat2012visual}
\abx@aux@segm{0}{0}{strasdat2012visual}
\abx@aux@cite{0}{mur2015orb}
\abx@aux@segm{0}{0}{mur2015orb}
\abx@aux@cite{0}{rublee2011orb}
\abx@aux@segm{0}{0}{rublee2011orb}
\abx@aux@cite{0}{lowe2004distinctive}
\abx@aux@segm{0}{0}{lowe2004distinctive}
\abx@aux@cite{0}{triggs1999bundle}
\abx@aux@segm{0}{0}{triggs1999bundle}
\abx@aux@cite{0}{klein2007parallel}
\abx@aux@segm{0}{0}{klein2007parallel}
\abx@aux@cite{0}{eade2008unified}
\abx@aux@segm{0}{0}{eade2008unified}
\abx@aux@cite{0}{mur2014fast}
\abx@aux@segm{0}{0}{mur2014fast}
\abx@aux@cite{0}{galvez2012bags}
\abx@aux@segm{0}{0}{galvez2012bags}
\@writefile{toc}{\contentsline {subsection}{\numberline {1.1}Related work}{2}{subsection.1.1}\protected@file@percent }
\abx@aux@cite{0}{klein2007parallel}
\abx@aux@segm{0}{0}{klein2007parallel}
\abx@aux@cite{0}{mur2015orb}
\abx@aux@segm{0}{0}{mur2015orb}
\abx@aux@cite{0}{paz2008large}
\abx@aux@segm{0}{0}{paz2008large}
\abx@aux@cite{0}{engel2015large}
\abx@aux@segm{0}{0}{engel2015large}
\abx@aux@cite{0}{newcombe2011kinectfusion}
\abx@aux@segm{0}{0}{newcombe2011kinectfusion}
\abx@aux@cite{0}{whelan2015elasticfusion}
\abx@aux@segm{0}{0}{whelan2015elasticfusion}
\abx@aux@cite{0}{strasdat2011double}
\abx@aux@segm{0}{0}{strasdat2011double}
\abx@aux@cite{0}{mur2017orb}
\abx@aux@segm{0}{0}{mur2017orb}
\abx@aux@cite{0}{mur2017orb}
\abx@aux@segm{0}{0}{mur2017orb}
\@writefile{lof}{\contentsline {figure}{\numberline {1}{\ignorespaces A depiction of close(green) and far(blue) ORB features. \blx@tocontentsinit {0}\cite {mur2017orb}. \relax }}{3}{figure.caption.4}\protected@file@percent }
\providecommand*\caption@xref[2]{\@setref\relax\@undefined{#1}}
\newlabel{fig:ba}{{1}{3}{A depiction of close(green) and far(blue) ORB features. \cite {mur2017orb}. \relax }{figure.caption.4}{}}
\abx@aux@cite{0}{chen2019bundle}
\abx@aux@segm{0}{0}{chen2019bundle}
\abx@aux@cite{0}{chen2019bundle}
\abx@aux@segm{0}{0}{chen2019bundle}
\abx@aux@cite{0}{kummerle2011g}
\abx@aux@segm{0}{0}{kummerle2011g}
\@writefile{toc}{\contentsline {section}{\numberline {2}Theoretical Framework}{4}{section.2}\protected@file@percent }
\@writefile{toc}{\contentsline {subsection}{\numberline {2.1}RGB-D to Stereo}{4}{subsection.2.1}\protected@file@percent }
\@writefile{toc}{\contentsline {subsection}{\numberline {2.2}Bundle Adjustment}{4}{subsection.2.2}\protected@file@percent }
\@writefile{toc}{\contentsline {subsubsection}{\numberline {2.2.1}Monocular Bundle Adjustment}{4}{subsubsection.2.2.1}\protected@file@percent }
\@writefile{lof}{\contentsline {figure}{\numberline {2}{\ignorespaces Traditional monocular BA, where $u_{ij}$ are feature points, $C_j$ are camera matrices and $X_i$ are map points while $i$ and $j$ are the observation and map point index respectively. $u'_{ij}$ are reprojections of map points according to the camera, the dotted lines show the reprojection error \blx@tocontentsinit {0}\cite {chen2019bundle}. \relax }}{5}{figure.caption.5}\protected@file@percent }
\newlabel{fig:ba}{{2}{5}{Traditional monocular BA, where $u_{ij}$ are feature points, $C_j$ are camera matrices and $X_i$ are map points while $i$ and $j$ are the observation and map point index respectively. $u'_{ij}$ are reprojections of map points according to the camera, the dotted lines show the reprojection error \cite {chen2019bundle}. \relax }{figure.caption.5}{}}
\@writefile{toc}{\contentsline {subsubsection}{\numberline {2.2.2}Stereo Bundle Adjustment}{5}{subsubsection.2.2.2}\protected@file@percent }
\@writefile{toc}{\contentsline {subsection}{\numberline {2.3}Similarity transformations and Loop Closing}{5}{subsection.2.3}\protected@file@percent }
\newlabel{sec:sim}{{2.3}{5}{Similarity transformations and Loop Closing}{subsection.2.3}{}}
\abx@aux@cite{0}{strasdat2011scale}
\abx@aux@segm{0}{0}{strasdat2011scale}
\abx@aux@cite{0}{mur2017orb}
\abx@aux@segm{0}{0}{mur2017orb}
\abx@aux@cite{0}{mur2017orb}
\abx@aux@segm{0}{0}{mur2017orb}
\abx@aux@cite{0}{mur2015orb}
\abx@aux@segm{0}{0}{mur2015orb}
\abx@aux@cite{0}{mur2015orb}
\abx@aux@segm{0}{0}{mur2015orb}
\abx@aux@cite{0}{galvez2012bags}
\abx@aux@segm{0}{0}{galvez2012bags}
\abx@aux@cite{0}{galvez2012bags}
\abx@aux@segm{0}{0}{galvez2012bags}
\abx@aux@cite{0}{galvez2012dbow2}
\abx@aux@segm{0}{0}{galvez2012dbow2}
\@writefile{lof}{\contentsline {figure}{\numberline {3}{\ignorespaces The main ORB-SLAM2 threads: tracking, local mapping loop closing and shared data structures: the map representation and place recognition. On the left the preprocessing into stereo keypoints. \blx@tocontentsinit {0}\cite {mur2017orb}. \relax }}{7}{figure.caption.6}\protected@file@percent }
\newlabel{fig:ov}{{3}{7}{The main ORB-SLAM2 threads: tracking, local mapping loop closing and shared data structures: the map representation and place recognition. On the left the preprocessing into stereo keypoints. \cite {mur2017orb}. \relax }{figure.caption.6}{}}
\@writefile{toc}{\contentsline {section}{\numberline {3}Implementation}{7}{section.3}\protected@file@percent }
\@writefile{toc}{\contentsline {subsection}{\numberline {3.1}Central Data Structures}{7}{subsection.3.1}\protected@file@percent }
\newlabel{fig:sfig1}{{4a}{8}{\relax }{figure.caption.7}{}}
\newlabel{sub@fig:sfig1}{{a}{8}{\relax }{figure.caption.7}{}}
\newlabel{fig:sfig2}{{4b}{8}{\relax }{figure.caption.7}{}}
\newlabel{sub@fig:sfig2}{{b}{8}{\relax }{figure.caption.7}{}}
\newlabel{fig:sfig3}{{4c}{8}{\relax }{figure.caption.7}{}}
\newlabel{sub@fig:sfig3}{{c}{8}{\relax }{figure.caption.7}{}}
\newlabel{fig:sfig4}{{4d}{8}{\relax }{figure.caption.7}{}}
\newlabel{sub@fig:sfig4}{{d}{8}{\relax }{figure.caption.7}{}}
\@writefile{lof}{\contentsline {figure}{\numberline {4}{\ignorespaces The ORB-SLAM map components. Figure (a) shows the visible map points(red) for the active camera frame(green) other camera frames are blue. The other images show the covisibility graph, spanning tree, and essential graph respectively \blx@tocontentsinit {0}\cite {mur2015orb}.\relax }}{8}{figure.caption.7}\protected@file@percent }
\newlabel{fig:str}{{4}{8}{The ORB-SLAM map components. Figure (a) shows the visible map points(red) for the active camera frame(green) other camera frames are blue. The other images show the covisibility graph, spanning tree, and essential graph respectively \cite {mur2015orb}.\relax }{figure.caption.7}{}}
\@writefile{lof}{\contentsline {figure}{\numberline {5}{\ignorespaces A DBoW2 database. The vocabulary tree consists of three layers, the leaves are learned words other nodes are learned word clusters. When a new image is inserted its features are used as binary words $w_i$. Each feature word traverses the tree always choosing the closest child according to the hamming distance. Finally, a visually similar leaf word is picked for each feature. If done for all features an image-dependent bag of words count vector $v$ is created, from the image feature indices. Two vectors are compared using the similarity weight $s(v1,v2) = 1-\frac  {1}{2}\abs  {\frac  {v_1}{\abs  {v1}}-\frac  {v2}{\abs  {v2}} }$. Using the inverse index for each word it is possible to quickly find similar images because only images with similar words have to be compared \blx@tocontentsinit {0}\cite {galvez2012bags}. \relax }}{8}{figure.caption.8}\protected@file@percent }
\newlabel{fig:bag}{{5}{8}{A DBoW2 database. The vocabulary tree consists of three layers, the leaves are learned words other nodes are learned word clusters. When a new image is inserted its features are used as binary words $w_i$. Each feature word traverses the tree always choosing the closest child according to the hamming distance. Finally, a visually similar leaf word is picked for each feature. If done for all features an image-dependent bag of words count vector $v$ is created, from the image feature indices. Two vectors are compared using the similarity weight $s(v1,v2) = 1-\frac {1}{2}\abs {\frac {v_1}{\abs {v1}}-\frac {v2}{\abs {v2}} }$. Using the inverse index for each word it is possible to quickly find similar images because only images with similar words have to be compared \cite {galvez2012bags}. \relax }{figure.caption.8}{}}
\@writefile{toc}{\contentsline {subsection}{\numberline {3.2}Tracking}{8}{subsection.3.2}\protected@file@percent }
\@writefile{toc}{\contentsline {subsection}{\numberline {3.3}Local Mapping}{9}{subsection.3.3}\protected@file@percent }
\@writefile{toc}{\contentsline {subsection}{\numberline {3.4}Loop Closing and Global Optimization}{9}{subsection.3.4}\protected@file@percent }
\abx@aux@cite{0}{engel2015large}
\abx@aux@segm{0}{0}{engel2015large}
\abx@aux@cite{0}{whelan2015elasticfusion}
\abx@aux@segm{0}{0}{whelan2015elasticfusion}
\abx@aux@cite{0}{whelan2012kintinuous}
\abx@aux@segm{0}{0}{whelan2012kintinuous}
\abx@aux@cite{0}{yan2017dense}
\abx@aux@segm{0}{0}{yan2017dense}
\abx@aux@cite{0}{endres20133}
\abx@aux@segm{0}{0}{endres20133}
\@writefile{lof}{\contentsline {figure}{\numberline {6}{\ignorespaces Quantitative results of different SLAM systems on the three datasets: KITTI(a), EuRoC(b), TUM RGB-D(c)\relax }}{11}{figure.caption.9}\protected@file@percent }
\newlabel{fig:q}{{6}{11}{Quantitative results of different SLAM systems on the three datasets: KITTI(a), EuRoC(b), TUM RGB-D(c)\relax }{figure.caption.9}{}}
\@writefile{toc}{\contentsline {section}{\numberline {4}Evaluation}{11}{section.4}\protected@file@percent }
\abx@aux@cite{0}{detone2018superpoint}
\abx@aux@segm{0}{0}{detone2018superpoint}
\abx@aux@cite{0}{maurer2022zippypoint}
\abx@aux@segm{0}{0}{maurer2022zippypoint}
\@writefile{toc}{\contentsline {subsection}{\numberline {4.1}Runtime Performance}{12}{subsection.4.1}\protected@file@percent }
\@writefile{toc}{\contentsline {section}{\numberline {5}Discussion}{12}{section.5}\protected@file@percent }
\abx@aux@read@bbl@mdfivesum{5879DE861C49CE1CB520663C3973AEC4}
\abx@aux@defaultrefcontext{0}{campos2021orb}{nty/global//global/global}
\abx@aux@defaultrefcontext{0}{castellanos1999spmap}{nty/global//global/global}
\abx@aux@defaultrefcontext{0}{chen2019bundle}{nty/global//global/global}
\abx@aux@defaultrefcontext{0}{cheng2005visual}{nty/global//global/global}
\abx@aux@defaultrefcontext{0}{detone2018superpoint}{nty/global//global/global}
\abx@aux@defaultrefcontext{0}{eade2008unified}{nty/global//global/global}
\abx@aux@defaultrefcontext{0}{endres20133}{nty/global//global/global}
\abx@aux@defaultrefcontext{0}{engel2015large}{nty/global//global/global}
\abx@aux@defaultrefcontext{0}{filliat2003map}{nty/global//global/global}
\abx@aux@defaultrefcontext{0}{galvez2012dbow2}{nty/global//global/global}
\abx@aux@defaultrefcontext{0}{galvez2012bags}{nty/global//global/global}
\abx@aux@defaultrefcontext{0}{klein2007parallel}{nty/global//global/global}
\abx@aux@defaultrefcontext{0}{kummerle2011g}{nty/global//global/global}
\abx@aux@defaultrefcontext{0}{lee2013embedded}{nty/global//global/global}
\abx@aux@defaultrefcontext{0}{lowe2004distinctive}{nty/global//global/global}
\abx@aux@defaultrefcontext{0}{maurer2022zippypoint}{nty/global//global/global}
\abx@aux@defaultrefcontext{0}{mur2015orb}{nty/global//global/global}
\abx@aux@defaultrefcontext{0}{mur2017orb}{nty/global//global/global}
\abx@aux@defaultrefcontext{0}{mur2014fast}{nty/global//global/global}
\abx@aux@defaultrefcontext{0}{newcombe2011kinectfusion}{nty/global//global/global}
\abx@aux@defaultrefcontext{0}{paz2008large}{nty/global//global/global}
\abx@aux@defaultrefcontext{0}{rublee2011orb}{nty/global//global/global}
\abx@aux@defaultrefcontext{0}{strasdat2012visual}{nty/global//global/global}
\abx@aux@defaultrefcontext{0}{strasdat2011double}{nty/global//global/global}
\abx@aux@defaultrefcontext{0}{tiemann2018enhanced}{nty/global//global/global}
\abx@aux@defaultrefcontext{0}{triggs1999bundle}{nty/global//global/global}
\abx@aux@defaultrefcontext{0}{whelan2015elasticfusion}{nty/global//global/global}
\abx@aux@defaultrefcontext{0}{whelan2012kintinuous}{nty/global//global/global}
\abx@aux@defaultrefcontext{0}{yan2017dense}{nty/global//global/global}
\gdef \@abspage@last{14}
